{
  "_comment": "Note: Arch can operate on 512MB RAM, but installation requires 1024",
  "builders": [
    {
      "boot_command": [
        "<enter><wait90>",
        "curl -OLs http://{{.HTTPIP}}:{{.HTTPPort}}/arch.sh && bash arch.sh --vagrant<enter>",
        "systemctl reboot<enter>",
        "<wait800>"
      ],
      "boot_wait": "10s",
      "disk_size": 200000,
      "guest_os_type": "ArchLinux_64",
      "guest_additions_mode":"disable",
      "http_directory": "/home/mike/production/source/provision/runscripts",
      "iso_checksum": "&&&&checksum&&&&",
      "iso_url": "file:///home/mike/Downloads/autiso_Arch_latest.iso",
      "shutdown_command": "sudo systemctl poweroff",
      "ssh_password": "vagrant",
      "ssh_timeout": "120s",
      "ssh_username": "vagrant",
      "type": "virtualbox-iso",
      "vboxmanage": [
        [
          "modifyvm",
          "{{.Name}}",
          "--memory",
          1024
        ],
        [
          "modifyvm",
          "{{.Name}}",
          "--cpus",
          1
        ],
        [
          "modifyvm",
          "{{.Name}}",
          "--graphicscontroller",
          "VMSVGA"
        ],
        [
          "modifyvm",
          "{{.Name}}",
          "--vram",
          32
        ]
      ],
      "vm_name": "arch_bleh",
      "headless": true
    }
  ],
  "post-processors": [
    {
      "type": "vagrant",
      "vagrantfile_template": "vagrantfiles/arch_64.rb",
      "output": "/home/mike/packer-build/vagrant_arch64.box"
    },
    {
      "type": "checksum",
      "checksum_types": [
        "sha1"
      ],
      "output": "/home/mike/packer-build/vagrant_arch_64.box.sha1"
    }
  ]
}
